{
  "type": "service_account",
  "project_id": "versatile-bolt-199607",
  "private_key_id": "0ee6fae89367ad3888f5df37c01ef5b879546c4f",
  "private_key": "-----BEGIN PRIVATE KEY-----\nMIIEvgIBADANBgkqhkiG9w0BAQEFAASCBKgwggSkAgEAAoIBAQDvR3eUoHSz2DH5\nxUIePBedL1F6Wl2iu7dcRjXGpEEQyQAzgc2L37ebcsQLNmHJdk9QpWY+U+4MEX+B\nzp5vnb+V7LiyC2ylaroqYu7PV5CgIyG1nNKFRVFe2NuEAIawjTP3t9WO5XzVJP7Z\ncXclZ01RryW+ug0phKeJnpIs9w8vUu0/z+KI6r/mkqFo6FiTPxKsLeoCgUqZF1Dr\nVensKiRuXRQakGWaAqR+sfVVvq6Y7Ft6k/6Qczi6kK4ce4LVMUA53j5z4C9MnxGL\nqL6hvm1wMEe+9jzVHw8BZQO1sW57RJiCbBc0dLHrettlOz7yqvLxYCHMqATHxpdF\nWmpPVuylAgMBAAECggEAHNnDI1qNd7nTnMgaBsc8GanA6z3GGH8Fxsx4Y3Een0V9\nDrjR7dGVs9qMpMVz2PS474Jh55X7F91sQFyHYfHlTdBzHJSgDvnlZIL1RG7Mc2KJ\nB/rWr1cCTqtbHHlrxBHieDXkPAyTlqeVSuaRdSMVgYnaxTptp9nk0YUbHuzTGeNs\nHxEFmw14bYS1K09AYxo6I5MIiwyZuRdmIdipR7uXsTDmzi/JFAFWb2Hra+gHjy5h\nnCaIMcKcpqwuT+U4BHU3PMNK3UiP5wY2TUMNDuD3fIXqF1blkBGsRM9nI5omZhqz\nYVjeu7XKHqqfIDAV2bB1thbJc+1yMvwOKKUTphxvaQKBgQD+RXHgtKtWQO/JVCZU\nB9tzrow3hSKIb0qzUOEaOBO7Jx2jDZzEadEgIM+HK3bs8Qvgqnpx+xODvV2SY8Kh\nJNfbvD4rr/PIyJvxaHw0ZGbvlcw848yCAliTDa4bsxR0dDdCJ+bpco8fvx3mMMkf\nDDX24LHGkpPQCtJIUmWKEHFWywKBgQDw5+3DPGaxy5GFmR4qDHA3MphMX0TQ4aXD\nufwxmBGBa8Wxvog5uC6WSpCBSPINOxcTQVrJBs0x7z32NBrJqS6S4juXHshmycqV\nG2txv/cRFLl8RPBsQxZtvxzUFgJxkFB69eMxG55/buHbQtsGP8wmz61FC1ViZ1qE\nDqXym87sTwKBgQCU1V9P8VDtHvt8dCYvP54ju4LVqLdK9yHZjjkE2NgrzzyYyYn+\nqhW/4ZS4ASgOjxWtvvwHJbkJftl7q6ssGd3EAA7AEbD30Pz+tHMnU7GxAZTX+1sk\nqmzgPryv+AW8GJ6Tubl+4hCGu56rs9i1tLcNt/43RmsA9qSZsqk+xFsjOwKBgFhz\n3/HieJZpdzoFeXTY8k7iDddk14CWiWWvITEYc70AVCsqGRyQStK1+A7wOKew/Yz9\nXxcWnzrpa+e9Q+StcMNPu6+GBvDuwKo00iOG53FnGZ/ONDScAV00YaJhnm4SHeq3\n475BNNX3YYg/KOpHfG73q9gBDE3AQxTfyACnQrezAoGBAMGVscQEdMKOXEbOundk\n3RUbwOYerq2Z/MyiW1SvoDauVkCtY8FF2SGeCOj4N48UelIXbFWn79r6h7d+4RQ6\n7lzkNlkiLGfJM+VF8K5iph3Cq3xsPZRT+iQX8C/yPSL3DtlhwJO1PTRS0HQp/2Om\n0aQ6meGQ474tUhdXuQRf08x/\n-----END PRIVATE KEY-----\n",
  "client_email": "someservice@versatile-bolt-199607.iam.gserviceaccount.com",
  "client_id": "106643964549119168951",
  "auth_uri": "https://accounts.google.com/o/oauth2/auth",
  "token_uri": "https://oauth2.googleapis.com/token",
  "auth_provider_x509_cert_url": "https://www.googleapis.com/oauth2/v1/certs",
  "client_x509_cert_url": "https://www.googleapis.com/robot/v1/metadata/x509/someservice%40versatile-bolt-199607.iam.gserviceaccount.com"
}
